{
  "Intel": {
    "cxx": "icpc", 
    "cc": "icc", 
    "fortran": "ifort"
  }, 
  "GNU": {
    "cxx": "g++", 
    "cc": "gcc", 
    "fortran": "gfortran"
  }, 
  "CLANG":  {
    "cxx": "clang++",  
    "cc": "clang"
  }, 
  "PGI": {
    "cxx": "pgc++", 
    "cc": "pgcc",  
    "fortran": "pgf90"
  }
}


